%YAML 1.1
%TAG !u! tag:unity3d.com,2011:
--- !u!1045 &1
EditorBuildSettings:
  m_ObjectHideFlags: 0
  serializedVersion: 2
  m_Scenes:
  - enabled: 1
    path: Assets/Scenes/GameMenu.unity
    guid: b5ef4f2e13689304ab06cbae890c8523
  - enabled: 1
    path: Assets/Scenes/Level01.unity
    guid: 873ef8661c6ca024c8fd97155e13a002
  - enabled: 1
    path: Assets/Scenes/Level02.unity
    guid: 84e7edd4f25117a4ea3883d216cf1dfd
  - enabled: 1
    path: Assets/Scenes/Level03.unity
    guid: fdcb38553a710064f894570d88db19c6
